[
  {
    "id": 1,
    "name": "Durian",
    "price": "MYR 3",
    "sold_at": [
      {
        "id": "lazada_my",
        "name": "Lazada Malaysia",
        "stock_count": 20
      }
    ]
  },
  {
    "id": 2,
    "name": "Watermelon",
    "price": "MYR 18",
    "sold_at": [
      {
        "id": "lazada_id",
        "name": "Lazada Indonesia",
        "stock_count": 112
      },
      {
        "id": "mudah_id",
        "name": "Mudah.com.id",
        "stock_count": 210
      }
    ]
  },
  {
    "id": 3,
    "name": "Red Mango",
    "price": "MYR 10",
    "sold_at": [
      {
        "id": "amazon_uk",
        "name": "Amazon UK",
        "stock_count": 12
      },
      {
        "id": "crazyegg_us",
        "name": "Crazy Egg",
        "stock_count": 2000
      },
      {
        "id": "dhgate",
        "name": "DHGate.com",
        "stock_count": 2000
      }
    ]
  },
  {
    "id": 4,
    "name": "Kiwi Australia",
    "price": "MYR 50",
    "sold_at": [
      {
        "id": "lazada_my",
        "name": "Lazada Malaysia",
        "stock_count": 0
      },
      {
        "id": "mudah_my",
        "name": "Mudah.my",
        "stock_count": 102
      }
    ]
  },
  {
    "id": 5,
    "name": "Walnut",
    "price": "MYR 10",
    "sold_at": [
      {
        "id": "7eleven",
        "name": "7 Eleven Worldwide",
        "stock_count": 9999
      }
    ]
  }
]